Light,ECG,Temp,OXI
678.0,685.0,24.75,760.0
678.0,691.0,24.5,760.0
678.0,685.0,24.5,760.0
673.0,679.0,24.5,743.0
680.0,421.0,24.75,760.0
674.0,699.0,24.75,740.0
680.0,675.0,24.25,760.0
680.0,697.0,24.25,760.0
680.0,678.0,24.25,760.0
680.0,697.0,24.25,760.0
680.0,677.0,24.25,761.0
677.0,630.0,24.5,822.0
676.0,141.0,24.75,79.0
676.0,161.0,24.75,79.0
676.0,139.0,24.75,79.0
670.0,151.0,24.75,79.0
674.0,152.0,24.75,79.0
671.0,163.0,24.75,79.0
674.0,164.0,24.75,79.0
674.0,156.0,24.75,79.0
672.0,154.0,24.75,79.0
672.0,154.0,24.75,79.0
675.0,166.0,24.25,79.0
670.0,160.0,25.0,79.0
670.0,156.0,24.5,79.0
670.0,157.0,24.5,79.0
670.0,156.0,25.0,79.0
676.0,162.0,25.0,79.0
676.0,154.0,25.0,79.0
675.0,154.0,24.5,79.0
675.0,161.0,24.5,79.0
671.0,154.0,24.75,79.0
671.0,155.0,24.75,79.0
674.0,165.0,24.75,79.0
672.0,153.0,24.5,79.0
673.0,154.0,24.5,79.0
674.0,165.0,24.5,79.0
674.0,154.0,24.5,79.0
675.0,166.0,24.5,79.0
675.0,151.0,24.5,79.0
671.0,158.0,24.5,79.0
671.0,160.0,24.75,79.0
670.0,161.0,24.5,79.0
675.0,152.0,24.5,79.0
676.0,152.0,24.75,79.0
675.0,164.0,24.25,79.0
669.0,155.0,24.5,79.0
676.0,164.0,25.0,79.0
676.0,152.0,25.0,79.0
670.0,155.0,24.25,79.0
670.0,157.0,24.25,79.0
675.0,154.0,24.75,79.0
670.0,162.0,24.75,79.0
673.0,848.0,24.75,642.0
678.0,527.0,24.75,585.0
678.0,532.0,24.75,583.0
671.0,49.0,24.25,559.0
671.0,164.0,24.25,561.0
679.0,652.0,24.75,602.0
679.0,627.0,24.75,602.0
675.0,643.0,24.75,592.0
675.0,636.0,24.75,591.0
679.0,625.0,24.75,599.0
678.0,653.0,23.75,599.0
678.0,625.0,25.0,597.0
677.0,639.0,25.0,598.0
675.0,654.0,24.5,595.0
677.0,641.0,24.5,601.0
678.0,639.0,24.75,603.0
678.0,639.0,24.75,603.0
679.0,639.0,24.5,605.0
674.0,652.0,24.25,589.0
674.0,654.0,24.25,588.0
674.0,652.0,24.5,587.0
673.0,651.0,24.5,587.0
674.0,632.0,24.25,588.0
675.0,645.0,24.25,592.0
676.0,644.0,24.75,595.0
676.0,644.0,24.75,596.0
678.0,654.0,24.75,598.0
677.0,653.0,23.75,595.0
676.0,624.0,24.75,594.0
676.0,839.0,24.75,593.0
672.0,18.0,24.75,566.0
675.0,845.0,24.75,583.0
676.0,444.0,24.75,592.0
669.0,70.0,24.75,81.0
670.0,117.0,24.75,79.0
674.0,119.0,25.0,81.0
670.0,113.0,25.0,78.0
670.0,87.0,24.25,79.0
673.0,70.0,25.0,78.0
673.0,58.0,25.0,78.0
672.0,167.0,25.0,78.0
673.0,11.0,25.0,79.0
673.0,205.0,24.5,78.0
674.0,248.0,24.5,78.0
674.0,0.0,24.5,77.0
675.0,0.0,24.5,77.0
669.0,79.0,24.75,80.0
672.0,138.0,24.75,78.0
675.0,174.0,24.75,78.0
675.0,23.0,24.75,78.0
675.0,182.0,24.75,78.0
675.0,0.0,25.0,78.0
670.0,46.0,25.0,77.0
673.0,170.0,24.75,78.0
673.0,60.0,24.75,77.0
672.0,64.0,24.25,77.0
669.0,60.0,24.5,77.0
670.0,130.0,24.5,77.0
670.0,114.0,24.5,77.0
670.0,81.0,24.5,77.0
675.0,31.0,24.5,77.0
675.0,162.0,24.5,77.0
675.0,36.0,24.5,77.0
675.0,127.0,24.75,77.0
670.0,66.0,24.75,77.0
673.0,60.0,25.0,77.0
671.0,127.0,25.0,77.0
671.0,110.0,24.75,77.0
671.0,72.0,24.75,77.0
670.0,108.0,24.75,77.0
668.0,84.0,24.5,77.0
668.0,91.0,24.5,77.0
674.0,114.0,24.5,77.0
671.0,126.0,24.5,77.0
671.0,46.0,24.5,77.0
672.0,131.0,24.5,77.0
673.0,87.0,24.5,77.0
672.0,141.0,24.5,77.0
669.0,126.0,24.5,77.0
669.0,111.0,24.5,77.0
674.0,158.0,24.5,77.0
674.0,74.0,24.5,77.0
675.0,153.0,24.5,77.0
669.0,103.0,24.5,77.0
674.0,138.0,24.5,77.0
669.0,102.0,24.5,77.0
672.0,100.0,24.75,77.0
672.0,95.0,24.5,77.0
672.0,155.0,24.5,77.0
668.0,115.0,24.5,77.0
668.0,110.0,25.0,77.0
673.0,98.0,25.0,77.0
670.0,104.0,24.75,77.0
674.0,159.0,24.75,77.0
668.0,117.0,24.75,77.0
674.0,149.0,25.0,77.0
668.0,111.0,24.5,77.0
669.0,107.0,24.5,77.0
671.0,144.0,24.25,77.0
672.0,155.0,24.25,77.0
673.0,159.0,24.25,77.0
674.0,99.0,24.75,77.0
671.0,115.0,24.75,77.0
670.0,112.0,24.75,77.0
670.0,140.0,24.75,77.0
669.0,118.0,24.75,77.0
668.0,126.0,24.75,77.0
674.0,95.0,24.75,78.0
673.0,151.0,24.75,78.0
667.0,120.0,24.75,78.0
668.0,135.0,24.75,78.0
673.0,146.0,24.75,78.0
671.0,117.0,24.75,78.0
668.0,140.0,24.5,78.0
668.0,139.0,24.5,77.0
667.0,138.0,24.5,78.0
674.0,147.0,24.75,78.0
674.0,113.0,24.75,78.0
668.0,137.0,24.75,78.0
668.0,136.0,24.75,78.0
672.0,134.0,24.5,78.0
672.0,109.0,24.5,77.0
671.0,115.0,24.5,78.0
670.0,100.0,24.5,77.0
673.0,95.0,24.75,78.0
672.0,84.0,24.75,77.0
669.0,100.0,24.75,78.0
668.0,103.0,25.0,78.0
673.0,113.0,24.5,78.0
667.0,98.0,24.5,78.0
672.0,94.0,25.0,78.0
672.0,105.0,25.0,78.0
669.0,99.0,25.0,78.0
668.0,103.0,24.75,78.0
668.0,97.0,24.75,78.0
668.0,102.0,24.0,78.0
669.0,95.0,24.0,78.0
669.0,107.0,24.0,77.0
671.0,91.0,24.75,77.0
673.0,112.0,24.75,77.0
668.0,103.0,24.75,77.0
674.0,93.0,24.75,77.0
674.0,114.0,24.75,77.0
670.0,98.0,24.75,78.0
672.0,112.0,24.75,78.0
668.0,105.0,24.75,77.0
667.0,99.0,24.75,77.0
668.0,106.0,24.75,77.0
668.0,96.0,24.75,77.0
668.0,107.0,24.75,77.0
669.0,96.0,24.75,77.0
670.0,107.0,24.75,77.0
670.0,96.0,24.5,77.0
668.0,104.0,24.5,77.0
669.0,721.0,24.75,820.0
669.0,44.0,24.5,776.0
679.0,249.0,24.5,798.0
648.0,657.0,24.75,797.0
672.0,196.0,24.75,837.0
670.0,225.0,24.75,834.0
668.0,298.0,24.75,812.0
600.0,523.0,24.5,826.0
671.0,671.0,24.5,825.0
671.0,731.0,24.5,823.0
676.0,767.0,24.5,823.0
673.0,1020.0,24.0,824.0
672.0,1020.0,24.0,783.0
679.0,1020.0,24.0,801.0
678.0,1020.0,24.0,800.0
673.0,1020.0,24.5,789.0
674.0,1020.0,24.5,793.0
675.0,1020.0,24.5,795.0
673.0,1020.0,25.0,785.0
678.0,1020.0,25.0,802.0
678.0,1020.0,25.0,802.0
675.0,1020.0,24.5,790.0
676.0,1020.0,24.5,798.0
672.0,1020.0,24.25,782.0
672.0,1020.0,24.75,787.0
672.0,1020.0,24.75,788.0
675.0,1020.0,24.75,791.0
675.0,1020.0,24.5,798.0
676.0,1020.0,24.5,799.0
677.0,1020.0,24.25,799.0
676.0,1020.0,24.75,795.0
